{
    "data": [
        {
            "guid": 13,
            "name": "Ethereum",
            "symbol": "ETH",
            "token_price": "1769.02",
            "address": "0x0000000000000000000000000000000000000000",
            "is_native_token": true,
            "balance": "7708498255383000",
            "decimals": 18,
            "chain_id": 5,
            "network_id": 4,
            "volume": "4775794",
            "market_cap": "250714603",
            "minted_supply": "55765192",
            "total_market_cap": "0",
            "ath": "4863.7",
            "atl": "3.95e-16",
            "total_volume": "2087641688",
            "fiat_balance": "13.636487583737635",
            "price_change_24h_in_currency": "-42.28485249582263",
            "website_url": "https://balancer.finance",
            "twitter_url": "https://x.com/Balancer",
            "discord_url": "https://discord.gg/ARJWaeF",
            "explorer_url": "https://goerli.etherscan.io//token/0x0000000000000000000000000000000000000000",
            "logo_url": "https://assets.coingecko.com/coins/images/11683/small/Balancer.png?1592792958",
            "percentage": "0.8824967896798629"
        },
        {
            "guid": 11,
            "name": "Polygon",
            "symbol": "MATIC",
            "token_price": "1.052",
            "address": "0x0000000000000000000000000000000000001010",
            "is_native_token": true,
            "balance": "1725930802239761249",
            "decimals": 18,
            "chain_id": 80001,
            "network_id": 2,
            "volume": "623634829",
            "market_cap": "9542721765",
            "minted_supply": "10000000000",
            "total_market_cap": "10685589532",
            "ath": "2.92",
            "atl": "0.00314376",
            "total_volume": "956130472",
            "fiat_balance": "1.8156792039562288",
            "price_change_24h_in_currency": "0.10808",
            "website_url": "https://polygon.technology/",
            "twitter_url": "https://x.com/0xPolygon",
            "discord_url": "https://discord.com/invite/XvpHAxZ",
            "explorer_url": "https://mumbai.polygonscan.com/token/0x0000000000000000000000000000000000001010",
            "logo_url": "https://assets.coingecko.com/coins/images/4713/small/matic-token-icon.png?1624446912",
            "percentage": "0.11750321032013707"
        },
        {
            "guid": 1,
            "name": "Polygon",
            "symbol": "MATIC",
            "token_price": "0.686594",
            "address": "0x0000000000000000000000000000000000001010",
            "is_native_token": true,
            "balance": "0",
            "decimals": 18,
            "chain_id": 137,
            "network_id": 1,
            "volume": null,
            "market_cap": null,
            "minted_supply": "10000000000",
            "total_market_cap": "6397146102",
            "ath": "2.92",
            "atl": "0.00314376",
            "total_volume": "207373072",
            "fiat_balance": "0",
            "price_change_24h_in_currency": "-0.005342518976886423",
            "website_url": "https://polygon.technology/",
            "twitter_url": "https://x.com/0xPolygon",
            "discord_url": "https://discord.com/invite/XvpHAxZ",
            "explorer_url": "https://polygonscan.com/token/0x0000000000000000000000000000000000001010",
            "logo_url": "https://assets.coingecko.com/coins/images/4713/small/matic-token-icon.png?1624446912",
            "percentage": "0"
        },
        {
            "guid": 12,
            "name": "Ethereum",
            "symbol": "ETH",
            "token_price": "1846.35",
            "address": "0x0000000000000000000000000000000000000000",
            "is_native_token": true,
            "balance": "0",
            "decimals": 18,
            "chain_id": 1,
            "network_id": 3,
            "volume": "4775794",
            "market_cap": "250714603",
            "minted_supply": "120149688",
            "total_market_cap": "221849656600",
            "ath": "4878.26",
            "atl": "0.432979",
            "total_volume": "3419492056",
            "fiat_balance": "0",
            "price_change_24h_in_currency": "-5.945303459376419",
            "website_url": "https://www.ethereum.org/",
            "twitter_url": "https://x.com/ethereum",
            "discord_url": "https://discord.com/invite/CetY6Y4",
            "explorer_url": "https://etherscan.io/token/0x0000000000000000000000000000000000000000",
            "logo_url": "https://assets.coingecko.com/coins/images/279/small/ethereum.png?1595348880",
            "percentage": "0"
        },
        {
            "guid": null,
            "name": "VanityTron.io",
            "symbol": "VanityTron.io",
            "token_price": "0",
            "address": "0x14c63920df84f306dcd5bfc84a1a3a6270016a24",
            "is_native_token": false,
            "balance": "6666666",
            "decimals": 0,
            "chain_id": 80001,
            "network_id": 2,
            "volume": null,
            "market_cap": null,
            "minted_supply": null,
            "total_market_cap": null,
            "ath": null,
            "atl": null,
            "total_volume": null,
            "fiat_balance": null,
            "price_change_24h_in_currency": null,
            "website_url": null,
            "twitter_url": null,
            "discord_url": null,
            "explorer_url": "https://mumbai.polygonscan.com/token/0x14c63920df84f306dcd5bfc84a1a3a6270016a24",
            "logo_url": null,
            "percentage": "0"
        },
        {
            "guid": null,
            "name": "RareTron.io",
            "symbol": "RareTron.io",
            "token_price": "0",
            "address": "0x54fa517f05e11ffa87f4b22ae87d91cec0c2d7e1",
            "is_native_token": false,
            "balance": "66666",
            "decimals": 0,
            "chain_id": 80001,
            "network_id": 2,
            "volume": null,
            "market_cap": null,
            "minted_supply": null,
            "total_market_cap": null,
            "ath": null,
            "atl": null,
            "total_volume": null,
            "fiat_balance": null,
            "price_change_24h_in_currency": null,
            "website_url": null,
            "twitter_url": null,
            "discord_url": null,
            "explorer_url": "https://mumbai.polygonscan.com/token/0x54fa517f05e11ffa87f4b22ae87d91cec0c2d7e1",
            "logo_url": null,
            "percentage": "0"
        },
        {
            "guid": null,
            "name": "VanityTRX.org",
            "symbol": "VanityTRX.org",
            "token_price": "0",
            "address": "0x1b809925ba90c541d895d19f0b7d70ee281a987f",
            "is_native_token": false,
            "balance": "888888",
            "decimals": 0,
            "chain_id": 5,
            "network_id": 4,
            "volume": null,
            "market_cap": null,
            "minted_supply": null,
            "total_market_cap": null,
            "ath": null,
            "atl": null,
            "total_volume": null,
            "fiat_balance": null,
            "price_change_24h_in_currency": null,
            "website_url": null,
            "twitter_url": null,
            "discord_url": null,
            "explorer_url": "https://goerli.etherscan.io//token/0x1b809925ba90c541d895d19f0b7d70ee281a987f",
            "logo_url": null,
            "percentage": "0"
        },
        {
            "guid": null,
            "name": "RareTron.io",
            "symbol": "RareTron.io",
            "token_price": "0",
            "address": "0x54fa517f05e11ffa87f4b22ae87d91cec0c2d7e1",
            "is_native_token": false,
            "balance": "66666",
            "decimals": 0,
            "chain_id": 5,
            "network_id": 4,
            "volume": null,
            "market_cap": null,
            "minted_supply": null,
            "total_market_cap": null,
            "ath": null,
            "atl": null,
            "total_volume": null,
            "fiat_balance": null,
            "price_change_24h_in_currency": null,
            "website_url": null,
            "twitter_url": null,
            "discord_url": null,
            "explorer_url": "https://goerli.etherscan.io//token/0x54fa517f05e11ffa87f4b22ae87d91cec0c2d7e1",
            "logo_url": null,
            "percentage": "0"
        },
        {
            "guid": null,
            "name": "Dummy ERC20",
            "symbol": "DERC20",
            "token_price": "0",
            "address": "0xfe4f5145f6e09952a5ba9e956ed0c25e3fa4c7f1",
            "is_native_token": false,
            "balance": "3990000000000000000",
            "decimals": 18,
            "chain_id": 80001,
            "network_id": 2,
            "volume": null,
            "market_cap": null,
            "minted_supply": null,
            "total_market_cap": null,
            "ath": null,
            "atl": null,
            "total_volume": null,
            "fiat_balance": null,
            "price_change_24h_in_currency": null,
            "website_url": null,
            "twitter_url": null,
            "discord_url": null,
            "explorer_url": "https://mumbai.polygonscan.com/token/0xfe4f5145f6e09952a5ba9e956ed0c25e3fa4c7f1",
            "logo_url": null,
            "percentage": "0"
        },
        {
            "guid": null,
            "name": "Test Token",
            "symbol": "TST",
            "token_price": "0",
            "address": "0x2d7882bedcbfddce29ba99965dd3cdf7fcb10a1e",
            "is_native_token": false,
            "balance": "1980000000000000000",
            "decimals": 18,
            "chain_id": 80001,
            "network_id": 2,
            "volume": null,
            "market_cap": null,
            "minted_supply": null,
            "total_market_cap": null,
            "ath": null,
            "atl": null,
            "total_volume": null,
            "fiat_balance": null,
            "price_change_24h_in_currency": null,
            "website_url": null,
            "twitter_url": null,
            "discord_url": null,
            "explorer_url": "https://mumbai.polygonscan.com/token/0x2d7882bedcbfddce29ba99965dd3cdf7fcb10a1e",
            "logo_url": null,
            "percentage": "0"
        }
    ],
    "links": [
        {
            "url": null,
            "label": "&laquo; Previous",
            "active": false
        },
        {
            "url": "http://127.0.0.1:8000/api/tokens?page=1",
            "label": "1",
            "active": true
        },
        {
            "url": "http://127.0.0.1:8000/api/tokens?page=2",
            "label": "2",
            "active": false
        },
        {
            "url": "http://127.0.0.1:8000/api/tokens?page=2",
            "label": "Next &raquo;",
            "active": false
        }
    ],
    "meta": {
        "current_page": 1,
        "first_page_url": "http://127.0.0.1:8000/api/tokens?page=1",
        "from": 1,
        "last_page": 2,
        "last_page_url": "http://127.0.0.1:8000/api/tokens?page=2",
        "next_page_url": "http://127.0.0.1:8000/api/tokens?page=2",
        "path": "http://127.0.0.1:8000/api/tokens",
        "per_page": 10,
        "prev_page_url": null,
        "to": 10,
        "total": 18
    }
}
